\relax 
\abx@aux@refcontext{nty/global//global/global}
\providecommand\hyper@newdestlabel[2]{}
\providecommand\HyperFirstAtBeginDocument{\AtBeginDocument}
\HyperFirstAtBeginDocument{\ifx\hyper@anchor\@undefined
\global\let\oldnewlabel\newlabel
\gdef\newlabel#1#2{\newlabelxx{#1}#2}
\gdef\newlabelxx#1#2#3#4#5#6{\oldnewlabel{#1}{{#2}{#3}}}
\AtEndDocument{\ifx\hyper@anchor\@undefined
\let\newlabel\oldnewlabel
\fi}
\fi}
\global\let\hyper@last\relax 
\gdef\HyperFirstAtBeginDocument#1{#1}
\providecommand\HyField@AuxAddToFields[1]{}
\providecommand\HyField@AuxAddToCoFields[2]{}
\abx@aux@cite{0}{ARTICLE:1}
\abx@aux@segm{0}{0}{ARTICLE:1}
\@writefile{toc}{\contentsline {section}{\numberline {1}Représentation interne du code OCaml}{2}{section.1}\protected@file@percent }
\@writefile{toc}{\contentsline {subsection}{Environnement}{2}{section*.1}\protected@file@percent }
\@writefile{toc}{\contentsline {section}{\numberline {2}Implémentation des fonctions arithmétiques et booléennes}{2}{section.2}\protected@file@percent }
\@writefile{toc}{\contentsline {subsection}{Evaluation des opérations}{3}{section*.2}\protected@file@percent }
\@writefile{toc}{\contentsline {section}{\numberline {3}Implémentation des fonctions}{3}{section.3}\protected@file@percent }
\@writefile{toc}{\contentsline {subsection}{Evaluation des fonctions}{3}{section*.3}\protected@file@percent }
\@writefile{toc}{\contentsline {section}{\numberline {4}Implémentation des fonctions recursives}{4}{section.4}\protected@file@percent }
\@writefile{toc}{\contentsline {subsection}{Evaluation d'une fonction récursive}{4}{section*.4}\protected@file@percent }
\@writefile{toc}{\contentsline {section}{\numberline {5}Implémentation des couples}{4}{section.5}\protected@file@percent }
\@writefile{toc}{\contentsline {section}{\numberline {6}Implémentation des listes}{5}{section.6}\protected@file@percent }
\@writefile{toc}{\contentsline {section}{\numberline {7}Implémentation du Match ... With}{5}{section.7}\protected@file@percent }
\@writefile{toc}{\contentsline {section}{\numberline {8}Implémentation des références}{6}{section.8}\protected@file@percent }
\@writefile{toc}{\contentsline {section}{\numberline {9}Implémentation des boucles}{6}{section.9}\protected@file@percent }
\@writefile{toc}{\contentsline {subsection}{Pour la boucle while}{6}{section*.5}\protected@file@percent }
\@writefile{toc}{\contentsline {subsection}{Pour la boucle For}{6}{section*.6}\protected@file@percent }
\@writefile{toc}{\contentsline {section}{\numberline {10}Inférence de type monomorphe}{7}{section.10}\protected@file@percent }
\@writefile{toc}{\contentsline {subsection}{Génération du problème d'unification}{7}{section*.7}\protected@file@percent }
\@writefile{toc}{\contentsline {subsection}{Implémentation du problème d'unification}{7}{section*.8}\protected@file@percent }
\@writefile{toc}{\contentsline {subsection}{Une fois l'unification faite}{7}{section*.9}\protected@file@percent }
\abx@aux@read@bbl@mdfivesum{C52D4BCBF12407B37B33CE716E549EBC}
\abx@aux@defaultrefcontext{0}{ARTICLE:1}{nty/global//global/global}
\gdef \@abspage@last{8}
